{
    "relationships": [
        {
            "relationshipId": 1,
            "relationshipName": "businessTravelRequest",
            "otherEntityName": "businessTravelRequest",
            "relationshipType": "many-to-one",
            "otherEntityField": "id"
        },
        {
            "relationshipId": 2,
            "relationshipName": "expenseType",
            "otherEntityName": "expenseType",
            "relationshipType": "many-to-one",
            "otherEntityField": "type"
        }
    ],
    "fields": [
        {
            "fieldId": 1,
            "fieldName": "expenseCost",
            "fieldType": "Double",
            "fieldValidateRules": []
        }
    ],
    "changelogDate": "20160303211154",
    "dto": "no",
    "service": "serviceClass",
    "pagination": "pagination"
}
